…
merged_df$temp_diff <- merged_df$station_median_temp - merged_df$state_median_temp
merged_df$wind_speed_diff <- merged_df$station_median_wind_speed - merged_df$state_median_wind_speed
merged_df$euclidean <- sqrt(merged_df$temp_diff**2 + merged_df$wind_speed_diff**2)

merged_df_by_state <- merged_df %>% 
  group_by(STATE) %>% 
  arrange(euclidean) %>% 
  slice(1)
closest_stations <- merged_df_by_state[, c("STATE", "USAFID", "euclidean")]
closest_stations
```

    ## # A tibble: 48 × 3
    ## # Groups:   STATE [48]
    ##    STATE USAFID euclidean
    ##    <chr>  <int>     <dbl>
    ##  1 AL    720265     0.200
    ##  2 AR    722188     0.100
    ##  3 AZ    722728     0.5  
    ##  4 CA    722950     0.300
    ##  5 CO    724695     0.100
    ##  6 CT    725040     0.5  
    ##  7 DE    724093     0.200
    ##  8 FL    722024     0    
    ##  9 GA    722255     0    
    ## 10 IA    722097     0    
    ## # ℹ 38 more rows
…
